Practical Activity 2/sistema_y.log
xrun(64): 24.09-s001: (c) Copyright 1995-2024 Cadence Design Systems, Inc.
TOOL:	xrun(64)	24.09-s001: Started on Apr 25, 2025 at 08:51:15 -03
xrun
	fast_vdd1v0_basicCells_hvt.v
	sistema_y.sv
	sistema_y_tb.sv
	-gui
	-access +rw
file: sistema_y.sv
	module worklib.sistema_y:sv
		errors: 0, warnings: 0
file: sistema_y_tb.sv
	module worklib.tb:sv
		errors: 0, warnings: 0
		Caching library 'worklib' ....... Done
	Elaborating the design hierarchy:
	Top level design units:
		ACHCONX2HVT
		ADDFHX1HVT
		ADDFHX2HVT
		ADDFHX4HVT
		ADDFHXLHVT
		ADDFX1HVT
		ADDFX2HVT
		ADDFX4HVT
		ADDFXLHVT
		ADDHX1HVT
		ADDHX2HVT
		ADDHX4HVT
		ADDHXLHVT
		AND2X1HVT
		AND2X2HVT
		AND2X4HVT
		AND2X6HVT
		AND2X8HVT
		AND2XLHVT
		AND3X1HVT
		AND3X2HVT
		AND3X4HVT
		AND3X6HVT
		AND3X8HVT
		AND3XLHVT
		AND4X2HVT
		AND4X4HVT
		AND4X6HVT
		AND4X8HVT
		AND4XLHVT
		ANTENNAHVT
		AO21X1HVT
		AO21X2HVT
		AO21X4HVT
		AO21XLHVT
		AO22X1HVT
		AO22X2HVT
		AO22X4HVT
		AO22XLHVT
		AOI211X1HVT
		AOI211X2HVT
		AOI211X4HVT
		AOI211XLHVT
		AOI21X1HVT
		AOI21X2HVT
		AOI21X4HVT
		AOI21XLHVT
		AOI221X1HVT
		AOI221X2HVT
		AOI221X4HVT
		AOI221XLHVT
		AOI222X1HVT
		AOI222X2HVT
		AOI222X4HVT
		AOI222XLHVT
		AOI22X1HVT
		AOI22X2HVT
		AOI22X4HVT
		AOI22XLHVT
		AOI2BB1X1HVT
		AOI2BB1X2HVT
		AOI2BB1X4HVT
		AOI2BB1XLHVT
		AOI2BB2X1HVT
		AOI2BB2X2HVT
		AOI2BB2X4HVT
		AOI2BB2XLHVT
		AOI31X1HVT
		AOI31X2HVT
		AOI31X4HVT
		AOI31XLHVT
		AOI32X1HVT
		AOI32X2HVT
		AOI32X4HVT
		AOI32XLHVT
		AOI33X1HVT
		AOI33X2HVT
		AOI33X4HVT
		AOI33XLHVT
		BMXIX2HVT
		BMXIX4HVT
		BUFX12HVT
		BUFX16HVT
		BUFX2HVT
		BUFX20HVT
		BUFX3HVT
		BUFX4HVT
		BUFX6HVT
		BUFX8HVT
		CLKAND2X12HVT
		CLKAND2X2HVT
		CLKAND2X3HVT
		CLKAND2X4HVT
		CLKAND2X6HVT
		CLKAND2X8HVT
		CLKBUFX12HVT
		CLKBUFX16HVT
		CLKBUFX2HVT
		CLKBUFX20HVT
		CLKBUFX3HVT
		CLKBUFX4HVT
		CLKBUFX6HVT
		CLKBUFX8HVT
		CLKINVX1HVT
		CLKINVX12HVT
		CLKINVX16HVT
		CLKINVX2HVT
		CLKINVX20HVT
		CLKINVX3HVT
		CLKINVX4HVT
		CLKINVX6HVT
		CLKINVX8HVT
		CLKMX2X12HVT
		CLKMX2X2HVT
		CLKMX2X3HVT
		CLKMX2X4HVT
		CLKMX2X6HVT
		CLKMX2X8HVT
		CLKXOR2X1HVT
		CLKXOR2X2HVT
		CLKXOR2X4HVT
		CLKXOR2X8HVT
		DFFHQX1HVT
		DFFHQX2HVT
		DFFHQX4HVT
		DFFHQX8HVT
		DFFNSRX1HVT
		DFFNSRX2HVT
		DFFNSRX4HVT
		DFFNSRXLHVT
		DFFQX1HVT
		DFFQX2HVT
		DFFQX4HVT
		DFFQXLHVT
		DFFRHQX1HVT
		DFFRHQX2HVT
		DFFRHQX4HVT
		DFFRHQX8HVT
		DFFRX1HVT
		DFFRX2HVT
		DFFRX4HVT
		DFFRXLHVT
		DFFSHQX1HVT
		DFFSHQX2HVT
		DFFSHQX4HVT
		DFFSHQX8HVT
		DFFSRHQX1HVT
		DFFSRHQX2HVT
		DFFSRHQX4HVT
		DFFSRHQX8HVT
		DFFSRX1HVT
		DFFSRX2HVT
		DFFSRX4HVT
		DFFSRXLHVT
		DFFSX1HVT
		DFFSX2HVT
		DFFSX4HVT
		DFFSXLHVT
		DFFTRX1HVT
		DFFTRX2HVT
		DFFTRX4HVT
		DFFTRXLHVT
		DFFX1HVT
		DFFX2HVT
		DFFX4HVT
		DFFXLHVT
		DLY1X1HVT
		DLY1X4HVT
		DLY2X1HVT
		DLY2X4HVT
		DLY3X1HVT
		DLY3X4HVT
		DLY4X1HVT
		DLY4X4HVT
		EDFFHQX1HVT
		EDFFHQX2HVT
		EDFFHQX4HVT
		EDFFHQX8HVT
		EDFFTRX1HVT
		EDFFTRX2HVT
		EDFFTRX4HVT
		EDFFTRXLHVT
		EDFFX1HVT
		EDFFX2HVT
		EDFFX4HVT
		EDFFXLHVT
		HOLDX1HVT
		INVX1HVT
		INVX12HVT
		INVX16HVT
		INVX2HVT
		INVX20HVT
		INVX3HVT
		INVX4HVT
		INVX6HVT
		INVX8HVT
		INVXLHVT
		MDFFHQX1HVT
		MDFFHQX2HVT
		MDFFHQX4HVT
		MDFFHQX8HVT
		MX2X1HVT
		MX2X2HVT
		MX2X4HVT
		MX2X6HVT
		MX2X8HVT
		MX2XLHVT
		MX3X1HVT
		MX3X2HVT
		MX3X4HVT
		MX3XLHVT
		MX4X1HVT
		MX4X2HVT
		MX4X4HVT
		MX4XLHVT
		MXI2X1HVT
		MXI2X2HVT
		MXI2X4HVT
		MXI2X6HVT
		MXI2X8HVT
		MXI2XLHVT
		MXI3X1HVT
		MXI3X2HVT
		MXI3X4HVT
		MXI3XLHVT
		MXI4X1HVT
		MXI4X2HVT
		MXI4X4HVT
		MXI4XLHVT
		NAND2BX1HVT
		NAND2BX2HVT
		NAND2BX4HVT
		NAND2BXLHVT
		NAND2X1HVT
		NAND2X2HVT
		NAND2X4HVT
		NAND2X6HVT
		NAND2X8HVT
		NAND2XLHVT
		NAND3BX1HVT
		NAND3BX2HVT
		NAND3BX4HVT
		NAND3BXLHVT
		NAND3X1HVT
		NAND3X2HVT
		NAND3X4HVT
		NAND3X6HVT
		NAND3X8HVT
		NAND3XLHVT
		NAND4BBX1HVT
		NAND4BBX2HVT
		NAND4BBX4HVT
		NAND4BBXLHVT
		NAND4BX1HVT
		NAND4BX2HVT
		NAND4BX4HVT
		NAND4BXLHVT
		NAND4X1HVT
		NAND4X2HVT
		NAND4X4HVT
		NAND4X6HVT
		NAND4X8HVT
		NAND4XLHVT
		NOR2BX1HVT
		NOR2BX2HVT
		NOR2BX4HVT
		NOR2BXLHVT
		NOR2X1HVT
		NOR2X2HVT
		NOR2X4HVT
		NOR2X6HVT
		NOR2X8HVT
		NOR2XLHVT
		NOR3BX1HVT
		NOR3BX2HVT
		NOR3BX4HVT
		NOR3BXLHVT
		NOR3X1HVT
		NOR3X2HVT
		NOR3X4HVT
		NOR3X6HVT
		NOR3X8HVT
		NOR3XLHVT
		NOR4BBX1HVT
		NOR4BBX2HVT
		NOR4BBX4HVT
		NOR4BBXLHVT
		NOR4BX1HVT
		NOR4BX2HVT
		NOR4BX4HVT
		NOR4BXLHVT
		NOR4X1HVT
		NOR4X2HVT
		NOR4X4HVT
		NOR4X6HVT
		NOR4X8HVT
		NOR4XLHVT
		OA21X1HVT
		OA21X2HVT
		OA21X4HVT
		OA21XLHVT
		OA22X1HVT
		OA22X2HVT
		OA22X4HVT
		OA22XLHVT
		OAI211X1HVT
		OAI211X2HVT
		OAI211X4HVT
		OAI211XLHVT
		OAI21X1HVT
		OAI21X2HVT
		OAI21X4HVT
		OAI21XLHVT
		OAI221X1HVT
		OAI221X2HVT
		OAI221X4HVT
		OAI221XLHVT
		OAI222X1HVT
		OAI222X2HVT
		OAI222X4HVT
		OAI222XLHVT
		OAI22X1HVT
		OAI22X2HVT
		OAI22X4HVT
		OAI22XLHVT
		OAI2BB1X1HVT
		OAI2BB1X2HVT
		OAI2BB1X4HVT
		OAI2BB1XLHVT
		OAI2BB2X1HVT
		OAI2BB2X2HVT
		OAI2BB2X4HVT
		OAI2BB2XLHVT
		OAI31X1HVT
		OAI31X2HVT
		OAI31X4HVT
		OAI31XLHVT
		OAI32X1HVT
		OAI32X2HVT
		OAI32X4HVT
		OAI32XLHVT
		OAI33X1HVT
		OAI33X2HVT
		OAI33X4HVT
		OAI33XLHVT
		OR2X1HVT
		OR2X2HVT
		OR2X4HVT
		OR2X6HVT
		OR2X8HVT
		OR2XLHVT
		OR3X1HVT
		OR3X2HVT
		OR3X4HVT
		OR3X6HVT
		OR3X8HVT
		OR3XLHVT
		OR4X1HVT
		OR4X2HVT
		OR4X4HVT
		OR4X6HVT
		OR4X8HVT
		OR4XLHVT
		SDFFHQX1HVT
		SDFFHQX2HVT
		SDFFHQX4HVT
		SDFFHQX8HVT
		SDFFNSRX1HVT
		SDFFNSRX2HVT
		SDFFNSRX4HVT
		SDFFNSRXLHVT
		SDFFQX1HVT
		SDFFQX2HVT
		SDFFQX4HVT
		SDFFQXLHVT
		SDFFRHQX1HVT
		SDFFRHQX2HVT
		SDFFRHQX4HVT
		SDFFRHQX8HVT
		SDFFRX1HVT
		SDFFRX2HVT
		SDFFRX4HVT
		SDFFRXLHVT
		SDFFSHQX1HVT
		SDFFSHQX2HVT
		SDFFSHQX4HVT
		SDFFSHQX8HVT
		SDFFSRHQX1HVT
		SDFFSRHQX2HVT
		SDFFSRHQX4HVT
		SDFFSRHQX8HVT
		SDFFSRX1HVT
		SDFFSRX2HVT
		SDFFSRX4HVT
		SDFFSRXLHVT
		SDFFSX1HVT
		SDFFSX2HVT
		SDFFSX4HVT
		SDFFSXLHVT
		SDFFTRX1HVT
		SDFFTRX2HVT
		SDFFTRX4HVT
		SDFFTRXLHVT
		SDFFX1HVT
		SDFFX2HVT
		SDFFX4HVT
		SDFFXLHVT
		SEDFFHQX1HVT
		SEDFFHQX2HVT
		SEDFFHQX4HVT
		SEDFFHQX8HVT
		SEDFFTRX1HVT
		SEDFFTRX2HVT
		SEDFFTRX4HVT
		SEDFFTRXLHVT
		SEDFFX1HVT
		SEDFFX2HVT
		SEDFFX4HVT
		SEDFFXLHVT
		SMDFFHQX1HVT
		SMDFFHQX2HVT
		SMDFFHQX4HVT
		SMDFFHQX8HVT
		TBUFX1HVT
		TBUFX12HVT
		TBUFX16HVT
		TBUFX2HVT
		TBUFX20HVT
		TBUFX3HVT
		TBUFX4HVT
		TBUFX6HVT
		TBUFX8HVT
		TBUFXLHVT
		TIEHIHVT
		TIELOHVT
		TLATNCAX12HVT
		TLATNCAX16HVT
		TLATNCAX2HVT
		TLATNCAX20HVT
		TLATNCAX3HVT
		TLATNCAX4HVT
		TLATNCAX6HVT
		TLATNCAX8HVT
		TLATNSRX1HVT
		TLATNSRX2HVT
		TLATNSRX4HVT
		TLATNSRXLHVT
		TLATNTSCAX12HVT
		TLATNTSCAX16HVT
		TLATNTSCAX2HVT
		TLATNTSCAX20HVT
		TLATNTSCAX3HVT
		TLATNTSCAX4HVT
		TLATNTSCAX6HVT
		TLATNTSCAX8HVT
		TLATNX1HVT
		TLATNX2HVT
		TLATNX4HVT
		TLATNXLHVT
		TLATSRX1HVT
		TLATSRX2HVT
		TLATSRX4HVT
		TLATSRXLHVT
		TLATX1HVT
		TLATX2HVT
		TLATX4HVT
		TLATXLHVT
		XNOR2X2HVT
		XNOR2X4HVT
		XNOR2XLHVT
		XNOR3X1HVT
		XNOR3XLHVT
		XOR2X1HVT
		XOR2X2HVT
		XOR2X4HVT
		XOR2XLHVT
		XOR3X1HVT
		XOR3XLHVT
		tb
	Building instance overlay tables: .................... Done
	Generating native compiled code:
		worklib.tb:sv <0x5bba49ac>
			streams:   4, words:  7440
	Building instance specific data structures.
	Loading native compiled code:     .................... Done
	Design hierarchy summary:
		                     Instances  Unique
		Modules:                   485     482
		UDPs:                      272      14
		Primitives:              1,848       6
		Timing outputs:            571     416
		Registers:                 156     170
		Scalar wires:            2,867       -
		Expanded wires:              8       2
		Vectored wires:              1       -
		Initial blocks:              1       1
		Pseudo assignments:          2       -
		Timing checks:           1,976       -
		Delayed tcheck signals:    536     536
		Simulation timescale:     10ps
	Writing initial simulation snapshot: worklib.ACHCONX2HVT:v
xmsim: *W,NOMTDGUI: Multi-Threaded Dumping is disabled for interactive debug mode.

-------------------------------------
Relinquished control to SimVision...
xcelium> 
xcelium> source /usr/local/cds/XCELIUM2409/tools/xcelium/files/xmsimrc
xcelium> database -open waves -into waves.shm -default
Created default SHM database waves
xcelium> probe -create -shm tb.A tb.B tb.Q_y
Created probe 1
xcelium> run
 Time   A    B    Q
 ===== ==== ==== ===
                   0 0101  0101  1
                  10 0101  0100  0
                  20 1111  1111  1
                  30 1010  1011  0
                  40 0000  0000  1
                  45 0000  0001  0
                  50 0000  0010  0
                  55 0000  0011  0
                  60 0000  0100  0
                  65 0000  0101  0
                  70 0000  0110  0
                  75 0000  0111  0
                  80 0000  1000  0
                  85 0000  1001  0
                  90 0000  1010  0
                  95 0000  1011  0
                 100 0000  1100  0
                 105 0000  1101  0
                 110 0000  1110  0
                 115 0000  1111  0
                 120 0001  0000  0
                 125 0001  0001  1
                 130 0001  0010  0
                 135 0001  0011  0
                 140 0001  0100  0
                 145 0001  0101  0
                 150 0001  0110  0
                 155 0001  0111  0
                 160 0001  1000  0
                 165 0001  1001  0
                 170 0001  1010  0
                 175 0001  1011  0
                 180 0001  1100  0
                 185 0001  1101  0
                 190 0001  1110  0
                 195 0001  1111  0
                 200 0010  0000  0
                 205 0010  0001  0
                 210 0010  0010  1
                 215 0010  0011  0
                 220 0010  0100  0
                 225 0010  0101  0
                 230 0010  0110  0
                 235 0010  0111  0
                 240 0010  1000  0
                 245 0010  1001  0
                 250 0010  1010  0
                 255 0010  1011  0
                 260 0010  1100  0
                 265 0010  1101  0
                 270 0010  1110  0
                 275 0010  1111  0
                 280 0011  0000  0
                 285 0011  0001  0
                 290 0011  0010  0
                 295 0011  0011  1
                 300 0011  0100  0
                 305 0011  0101  0
                 310 0011  0110  0
                 315 0011  0111  0
                 320 0011  1000  0
                 325 0011  1001  0
                 330 0011  1010  0
                 335 0011  1011  0
                 340 0011  1100  0
                 345 0011  1101  0
                 350 0011  1110  0
                 355 0011  1111  0
                 360 0100  0000  0
                 365 0100  0001  0
                 370 0100  0010  0
                 375 0100  0011  0
                 380 0100  0100  1
                 385 0100  0101  0
                 390 0100  0110  0
                 395 0100  0111  0
                 400 0100  1000  0
                 405 0100  1001  0
                 410 0100  1010  0
                 415 0100  1011  0
                 420 0100  1100  0
                 425 0100  1101  0
                 430 0100  1110  0
                 435 0100  1111  0
                 440 0101  0000  0
                 445 0101  0001  0
                 450 0101  0010  0
                 455 0101  0011  0
                 460 0101  0100  0
                 465 0101  0101  1
                 470 0101  0110  0
                 475 0101  0111  0
                 480 0101  1000  0
                 485 0101  1001  0
                 490 0101  1010  0
                 495 0101  1011  0
                 500 0101  1100  0
                 505 0101  1101  0
                 510 0101  1110  0
                 515 0101  1111  0
                 520 0110  0000  0
                 525 0110  0001  0
                 530 0110  0010  0
                 535 0110  0011  0
                 540 0110  0100  0
                 545 0110  0101  0
                 550 0110  0110  1
                 555 0110  0111  0
                 560 0110  1000  0
                 565 0110  1001  0
                 570 0110  1010  0
                 575 0110  1011  0
                 580 0110  1100  0
                 585 0110  1101  0
                 590 0110  1110  0
                 595 0110  1111  0
                 600 0111  0000  0
                 605 0111  0001  0
                 610 0111  0010  0
                 615 0111  0011  0
                 620 0111  0100  0
                 625 0111  0101  0
                 630 0111  0110  0
                 635 0111  0111  1
                 640 0111  1000  0
                 645 0111  1001  0
                 650 0111  1010  0
                 655 0111  1011  0
                 660 0111  1100  0
                 665 0111  1101  0
                 670 0111  1110  0
                 675 0111  1111  0
                 680 1000  0000  0
                 685 1000  0001  0
                 690 1000  0010  0
                 695 1000  0011  0
                 700 1000  0100  0
                 705 1000  0101  0
                 710 1000  0110  0
                 715 1000  0111  0
                 720 1000  1000  1
                 725 1000  1001  0
                 730 1000  1010  0
                 735 1000  1011  0
                 740 1000  1100  0
                 745 1000  1101  0
                 750 1000  1110  0
                 755 1000  1111  0
                 760 1001  0000  0
                 765 1001  0001  0
                 770 1001  0010  0
                 775 1001  0011  0
                 780 1001  0100  0
                 785 1001  0101  0
                 790 1001  0110  0
                 795 1001  0111  0
                 800 1001  1000  0
                 805 1001  1001  1
                 810 1001  1010  0
                 815 1001  1011  0
                 820 1001  1100  0
                 825 1001  1101  0
                 830 1001  1110  0
                 835 1001  1111  0
                 840 1010  0000  0
                 845 1010  0001  0
                 850 1010  0010  0
                 855 1010  0011  0
                 860 1010  0100  0
                 865 1010  0101  0
                 870 1010  0110  0
                 875 1010  0111  0
                 880 1010  1000  0
                 885 1010  1001  0
                 890 1010  1010  1
                 895 1010  1011  0
                 900 1010  1100  0
                 905 1010  1101  0
                 910 1010  1110  0
                 915 1010  1111  0
                 920 1011  0000  0
                 925 1011  0001  0
                 930 1011  0010  0
                 935 1011  0011  0
                 940 1011  0100  0
                 945 1011  0101  0
                 950 1011  0110  0
                 955 1011  0111  0
                 960 1011  1000  0
                 965 1011  1001  0
                 970 1011  1010  0
                 975 1011  1011  1
                 980 1011  1100  0
                 985 1011  1101  0
                 990 1011  1110  0
                 995 1011  1111  0
                1000 1100  0000  0
                1005 1100  0001  0
                1010 1100  0010  0
                1015 1100  0011  0
                1020 1100  0100  0
                1025 1100  0101  0
                1030 1100  0110  0
                1035 1100  0111  0
                1040 1100  1000  0
                1045 1100  1001  0
                1050 1100  1010  0
                1055 1100  1011  0
                1060 1100  1100  1
                1065 1100  1101  0
                1070 1100  1110  0
                1075 1100  1111  0
                1080 1101  0000  0
                1085 1101  0001  0
                1090 1101  0010  0
                1095 1101  0011  0
                1100 1101  0100  0
                1105 1101  0101  0
                1110 1101  0110  0
                1115 1101  0111  0
                1120 1101  1000  0
                1125 1101  1001  0
                1130 1101  1010  0
                1135 1101  1011  0
                1140 1101  1100  0
                1145 1101  1101  1
                1150 1101  1110  0
                1155 1101  1111  0
                1160 1110  0000  0
                1165 1110  0001  0
                1170 1110  0010  0
                1175 1110  0011  0
                1180 1110  0100  0
                1185 1110  0101  0
                1190 1110  0110  0
                1195 1110  0111  0
                1200 1110  1000  0
                1205 1110  1001  0
                1210 1110  1010  0
                1215 1110  1011  0
                1220 1110  1100  0
                1225 1110  1101  0
                1230 1110  1110  1
                1235 1110  1111  0
                1240 1111  0000  0
                1245 1111  0001  0
                1250 1111  0010  0
                1255 1111  0011  0
                1260 1111  0100  0
                1265 1111  0101  0
                1270 1111  0110  0
                1275 1111  0111  0
                1280 1111  1000  0
                1285 1111  1001  0
                1290 1111  1010  0
                1295 1111  1011  0
                1300 1111  1100  0
                1305 1111  1101  0
                1310 1111  1110  0
                1315 1111  1111  1
Simulation complete via $finish(1) at time 1320 NS + 0
./sistema_y_tb.sv:41         $finish;
xcelium> ^C
xcelium> exit
TOOL:	xrun(64)	24.09-s001: Exiting on Apr 25, 2025 at 08:52:00 -03  (total: 00:00:45)
